…
``` r
sim_mean_sd(n = 30, mu = 4, sigma = 3)
```

    ## # A tibble: 1 × 2
    ##    mean    sd
    ##   <dbl> <dbl>
    ## 1  2.75  2.73

``` r
sim_data
```

    ## # A tibble: 30 × 1
    ##         x
    ##     <dbl>
    ##  1  2.57 
    ##  2 -3.41 
    ##  3  6.40 
    ##  4  2.46 
    ##  5  8.52 
    ##  6  3.43 
    ##  7 -0.130
    ##  8  3.83 
    ##  9 -0.802
    ## 10 -1.76 
    ## # … with 20 more rows
…
dynamite_reviews = bind_rows(
  get_page_reviews(vec_urls[1]),
  get_page_reviews(vec_urls[2]),
  get_page_reviews(vec_urls[3]),
  get_page_reviews(vec_urls[4]),
  get_page_reviews(vec_urls[5])
)

dynamite_reviews
```

    ## # A tibble: 50 × 3
    ##    title                                                 stars   text           
    ##    <chr>                                                 <chr>   <chr>          
    ##  1 I Just everyone to know this....                      5.0 ou… "\n  VOTE FOR …
    ##  2 the cobweb in his hair during the bike ramp scene lol 5.0 ou… "\n  5 stars f…
    ##  3 Best quirky movie ever                                5.0 ou… "\n  You all k…
    ##  4 Classic Film                                          5.0 ou… "\n  Had to or…
    ##  5 hehehehe                                              5.0 ou… "\n  goodjobbo…
    ##  6 Painful                                               1.0 ou… "\n  I think I…
    ##  7 GRAND                                                 5.0 ou… "\n  GRAND\n"  
    ##  8 Hello, 90s                                            5.0 ou… "\n  So nostal…
    ##  9 Cult Classic                                          5.0 ou… "\n  Watched i…
    ## 10 Format was inaccurate                                 4.0 ou… "\n  There was…
    ## # … with 40 more rows
